%YAML 1.1
%TAG !u! tag:unity3d.com,2011:
--- !u!1045 &1
EditorBuildSettings:
  m_ObjectHideFlags: 0
  serializedVersion: 2
  m_Scenes:
  - enabled: 1
    path: Assets/01_Scenes/Menu.unity
    guid: 211ab414d39c7e344aead033c722679d
  - enabled: 1
    path: Assets/01_Scenes/_TestScenes/InputTest 1.unity
    guid: 1fb6bf2958868a04394cc5bd76613bad
  - enabled: 1
    path: Assets/01_Scenes/gameover/GoliathWins.unity
    guid: ed05df8ef1f05664eab6ce4c496f4334
  - enabled: 1
    path: Assets/01_Scenes/gameover/DavidWins.unity
    guid: 186782db0dc520b4ab957cfd06b9218b
  m_configObjects: {}
