%YAML 1.1
%TAG !u! tag:unity3d.com,2011:
--- !u!78 &1
TagManager:
  serializedVersion: 2
  tags:
  - movementroot
  - mana
  layers:
  - Default
  - TransparentFX
  - Ignore Raycast
  - 
  - Water
  - UI
  - 
  - 
  - David
  - Obstacles
  - Collectibles
  - 
  - 
  - 
  - 
  - 
  - 
  - 
  - 
  - 
  - 
  - 
  - 
  - 
  - 
  - 
  - 
  - 
  - 
  - 
  - 
  - 
  m_SortingLayers:
  - name: Background
    uniqueID: 3735516899
    locked: 0
  - name: middleground
    uniqueID: 3540127359
    locked: 0
  - name: Ground
    uniqueID: 2452482101
    locked: 0
  - name: Default
    uniqueID: 0
    locked: 0
  - name: Items
    uniqueID: 1741095127
    locked: 0
  - name: Effects
    uniqueID: 1290859543
    locked: 0
  - name: UI
    uniqueID: 2035607135
    locked: 0
