%YAML 1.1
%TAG !u! tag:unity3d.com,2011:
--- !u!74 &7400000
AnimationClip:
  m_ObjectHideFlags: 0
  m_CorrespondingSourceObject: {fileID: 0}
  m_PrefabInstance: {fileID: 0}
  m_PrefabAsset: {fileID: 0}
  m_Name: player_attacking
  serializedVersion: 6
  m_Legacy: 0
  m_Compressed: 0
  m_UseHighQualityCurve: 1
  m_RotationCurves: []
  m_CompressedRotationCurves: []
  m_EulerCurves: []
  m_PositionCurves: []
  m_ScaleCurves: []
  m_FloatCurves: []
  m_PPtrCurves:
  - curve:
    - time: 0
      value: {fileID: 21300000, guid: 373fc8ea174a14b909ad28c3937f9004, type: 3}
    - time: 0.083333336
      value: {fileID: 21300000, guid: d2a07b774999342e3bd5c647377fcb15, type: 3}
    - time: 0.16666667
      value: {fileID: 21300000, guid: b1feb08dd76404734a346ccb21d545c1, type: 3}
    - time: 0.25
      value: {fileID: 21300000, guid: c930d7f78aab341e9bbe96aeac2401d2, type: 3}
    - time: 0.41666666
      value: {fileID: 21300000, guid: 1657a335efdde458e98fa0457c5da8d4, type: 3}
    - time: 0.5833333
      value: {fileID: 21300000, guid: 74039f7e8d96046d3a60f3d10a7dd2c0, type: 3}
    - time: 0.75
      value: {fileID: 21300000, guid: da5cee68b23cb4f0993f64a84ae9478a, type: 3}
    - time: 0.9166667
      value: {fileID: 21300000, guid: ae919fa0b228342bb9a337e8877dd2ac, type: 3}
    - time: 1.1666666
      value: {fileID: 21300000, guid: 1ea3773971d054176b8615244ff47a10, type: 3}
    - time: 1.3333334
      value: {fileID: 21300000, guid: a5179da266e2f4581976f295f1578271, type: 3}
    - time: 1.5
      value: {fileID: 21300000, guid: 056712f1d5ee44f3f877817987184c23, type: 3}
    attribute: m_Sprite
    path: 
    classID: 212
    script: {fileID: 0}
  m_SampleRate: 12
  m_WrapMode: 0
  m_Bounds:
    m_Center: {x: 0, y: 0, z: 0}
    m_Extent: {x: 0, y: 0, z: 0}
  m_ClipBindingConstant:
    genericBindings:
    - serializedVersion: 2
      path: 0
      attribute: 0
      script: {fileID: 0}
      typeID: 212
      customType: 23
      isPPtrCurve: 1
    pptrCurveMapping:
    - {fileID: 21300000, guid: 373fc8ea174a14b909ad28c3937f9004, type: 3}
    - {fileID: 21300000, guid: d2a07b774999342e3bd5c647377fcb15, type: 3}
    - {fileID: 21300000, guid: b1feb08dd76404734a346ccb21d545c1, type: 3}
    - {fileID: 21300000, guid: c930d7f78aab341e9bbe96aeac2401d2, type: 3}
    - {fileID: 21300000, guid: 1657a335efdde458e98fa0457c5da8d4, type: 3}
    - {fileID: 21300000, guid: 74039f7e8d96046d3a60f3d10a7dd2c0, type: 3}
    - {fileID: 21300000, guid: da5cee68b23cb4f0993f64a84ae9478a, type: 3}
    - {fileID: 21300000, guid: ae919fa0b228342bb9a337e8877dd2ac, type: 3}
    - {fileID: 21300000, guid: 1ea3773971d054176b8615244ff47a10, type: 3}
    - {fileID: 21300000, guid: a5179da266e2f4581976f295f1578271, type: 3}
    - {fileID: 21300000, guid: 056712f1d5ee44f3f877817987184c23, type: 3}
  m_AnimationClipSettings:
    serializedVersion: 2
    m_AdditiveReferencePoseClip: {fileID: 0}
    m_AdditiveReferencePoseTime: 0
    m_StartTime: 0
    m_StopTime: 1.5833334
    m_OrientationOffsetY: 0
    m_Level: 0
    m_CycleOffset: 0
    m_HasAdditiveReferencePose: 0
    m_LoopTime: 1
    m_LoopBlend: 0
    m_LoopBlendOrientation: 0
    m_LoopBlendPositionY: 0
    m_LoopBlendPositionXZ: 0
    m_KeepOriginalOrientation: 0
    m_KeepOriginalPositionY: 1
    m_KeepOriginalPositionXZ: 0
    m_HeightFromFeet: 0
    m_Mirror: 0
  m_EditorCurves: []
  m_EulerEditorCurves: []
  m_HasGenericRootTransform: 0
  m_HasMotionFloatCurves: 0
  m_Events: []
